{
  "availableFilters" : [ {
    "description" : "Miasta",
    "name" : "city",
    "values" : [ "Białystok", "Rzeszów", "Zielona Góra", "Gdańsk", "Poznań", "Warszawa", "Wrocław", "Kraków", "Szczecin" ]
  }, {
    "description" : "Dyscypliny Sportowe",
    "name" : "sportType",
    "values" : [ "Akrobatyka", "Biathlon", "Piłka nożna", "Strzelectwo", "Hokej", "Piłka ręczna", "Siatkówka", "Tenis", "Pływanie" ]
  }, {
    "description" : "Rozmiar wydarzenia",
    "name" : "eventSize",
    "values" : [ "międzynarodowy", "europejski", "krajowy", "wojewódzki", "powiatowy", "gminny", "miejski" ]
  } ],
  "events-data" : {
    "06d6ef38-cd38-47ba-88eb-39bd2d85cd13" : {
      "event" : {
        "dateTime" : {
          "dateTimeEnd" : "2018-02-02 14:00",
          "dateTimeStart" : "2018-02-02 12:00"
        },
        "details" : {
          "city" : "Warszawa",
          "eventSize" : "krajowy",
          "sportType" : "Pływanie"
        },
        "id" : "06d6ef38-cd38-47ba-88eb-39bd2d85cd13",
        "name" : "Mistrzostwa Polski w pływaniu juniorów 17, 18 lat (50m)"
      },
      "location" : {
        "address" : "Księcia Trojdena 2C, 02-109 Warszawa",
        "latitude" : 52.205893,
        "longitude" : 20.980954,
        "name" : "Centrum Sportowo-Rehabilitacyjne WUM"
      }
    },
    "31fac6f6-4187-4a3e-b385-158cefb45bfd" : {
      "event" : {
        "dateTime" : {
          "dateTimeEnd" : "2018-02-01 08:00",
          "dateTimeStart" : "2018-02-01 07:00"
        },
        "details" : {
          "city" : "Poznań",
          "eventSize" : "powiatowy",
          "sportType" : "Biathlon"
        },
        "id" : "31fac6f6-4187-4a3e-b385-158cefb45bfd",
        "name" : "Mistrzostwa młodzików powiatu żywieckiego w biathlonie"
      },
      "location" : {
        "address" : "Bułgarska 17, 60-320 Poznań",
        "latitude" : 52.397627,
        "longitude" : 16.858115,
        "name" : "INEA Stadion"
      }
    },
    "4508f5c0-497e-4ae5-b8a3-9d563f93f008" : {
      "event" : {
        "dateTime" : {
          "dateTimeEnd" : "2018-02-01 12:00",
          "dateTimeStart" : "2018-02-01 10:00"
        },
        "details" : {
          "city" : "Wrocław",
          "eventSize" : "europejski",
          "sportType" : "Siatkówka"
        },
        "id" : "4508f5c0-497e-4ae5-b8a3-9d563f93f008",
        "name" : "Mistrzostwa Europy w siatkówce, faza grupowa - Polska-Serbia."
      },
      "location" : {
        "address" : "Wystawowa 1, 51-618 Wrocław",
        "latitude" : 51.106855,
        "longitude" : 17.077242,
        "name" : "Hala Stulecia"
      }
    },
    "4e3b9fde-b554-452c-9f45-8d957ca6b01c" : {
      "event" : {
        "dateTime" : {
          "dateTimeEnd" : "2018-02-01 21:00",
          "dateTimeStart" : "2018-02-01 19:00"
        },
        "details" : {
          "city" : "Warszawa",
          "eventSize" : "europejski",
          "sportType" : "Piłka ręczna"
        },
        "id" : "4e3b9fde-b554-452c-9f45-8d957ca6b01c",
        "name" : "Eliminacje do Mistrzostw Europy w piłce ręcznej 2018 - Polska-Włochy"
      },
      "location" : {
        "address" : "aleja Poniatowskiego 1, 03-901 Warszawa",
        "latitude" : 52.239496,
        "longitude" : 21.04579,
        "name" : "PGE Narodowy"
      }
    },
    "52b9bfef-9422-4ef6-8dd8-160b1ddb4609" : {
      "event" : {
        "dateTime" : {
          "dateTimeEnd" : "2018-02-02 23:30",
          "dateTimeStart" : "2018-02-02 19:00"
        },
        "details" : {
          "city" : "Gdańsk",
          "eventSize" : "europejski",
          "sportType" : "Siatkówka"
        },
        "id" : "52b9bfef-9422-4ef6-8dd8-160b1ddb4609",
        "name" : "Mistrzostwa Europy w siatkówce, faza grupowa - Polska-Estonia."
      },
      "location" : {
        "address" : "plac Dwóch Miast 1, 80-344 Gdańsk",
        "latitude" : 54.426544,
        "longitude" : 18.580645,
        "name" : "ERGO ARENA"
      }
    },
    "5b8ccb3f-77fe-43f3-afcc-4fd399ca4949" : {
      "event" : {
        "dateTime" : {
          "dateTimeEnd" : "2018-02-04 21:00",
          "dateTimeStart" : "2018-02-04 18:00"
        },
        "details" : {
          "city" : "Warszawa",
          "eventSize" : "europejski",
          "sportType" : "Piłka nożna"
        },
        "id" : "5b8ccb3f-77fe-43f3-afcc-4fd399ca4949",
        "name" : "Mistrzostwa Europy w piłce nożnej - Francja-Polska"
      },
      "location" : {
        "address" : "Łazienkowska 3, 00-449 Warszawa",
        "latitude" : 52.220461,
        "longitude" : 21.040631,
        "name" : "Stadion Miejski Legii Warszawa im. Marszałka J. Piłsudskiego"
      }
    },
    "61d4020c-52f8-4c5c-898f-3199bb90f3a3" : {
      "event" : {
        "dateTime" : {
          "dateTimeEnd" : "2018-02-04 21:00",
          "dateTimeStart" : "2018-02-04 18:00"
        },
        "details" : {
          "city" : "Wrocław",
          "eventSize" : "europejski",
          "sportType" : "Piłka nożna"
        },
        "id" : "61d4020c-52f8-4c5c-898f-3199bb90f3a3",
        "name" : "Mistrzostwa Europy w piłce nożnej - Polska-Finlandia"
      },
      "location" : {
        "address" : "aleja Śląska 1, 54-118 Wrocław",
        "latitude" : 51.141216,
        "longitude" : 16.943793,
        "name" : "Stadion Wrocław"
      }
    },
    "683c29c7-2e49-48f9-9c74-b93ff98325d3" : {
      "event" : {
        "dateTime" : {
          "dateTimeEnd" : "2018-02-04 22:00",
          "dateTimeStart" : "2018-02-04 07:00"
        },
        "details" : {
          "city" : "Poznań",
          "eventSize" : "międzynarodowy",
          "sportType" : "Tenis"
        },
        "id" : "683c29c7-2e49-48f9-9c74-b93ff98325d3",
        "name" : "Challenger ATP"
      },
      "location" : {
        "address" : "Reymonta 35, 60-791 Poznań",
        "latitude" : 52.397966,
        "longitude" : 16.890189,
        "name" : "Centrum Tenisowe Arena"
      }
    },
    "78b817eb-e2ae-4150-8e4d-834306800aab" : {
      "event" : {
        "dateTime" : {
          "dateTimeEnd" : "2018-02-04 16:00",
          "dateTimeStart" : "2018-02-04 10:00"
        },
        "details" : {
          "city" : "Rzeszów",
          "eventSize" : "europejski",
          "sportType" : "Akrobatyka"
        },
        "id" : "78b817eb-e2ae-4150-8e4d-834306800aab",
        "name" : "Mistrzostwa Europy w Akrobatyce Sportowej"
      },
      "location" : {
        "address" : "Stanisława Wyspiańskiego 22, 35-001 Rzeszów",
        "latitude" : 50.040696,
        "longitude" : 21.983036,
        "name" : "Stadion CWKS Resovia"
      }
    },
    "7d5e5832-0aca-491d-83ae-78b4fa97e911" : {
      "event" : {
        "dateTime" : {
          "dateTimeEnd" : "2018-02-04 11:00",
          "dateTimeStart" : "2018-02-04 07:00"
        },
        "details" : {
          "city" : "Kraków",
          "eventSize" : "międzynarodowy",
          "sportType" : "Hokej"
        },
        "id" : "7d5e5832-0aca-491d-83ae-78b4fa97e911",
        "name" : "Hokejowa Liga Mistrzów - Cracovia-Red Bull"
      },
      "location" : {
        "address" : "Michała Siedleckiego 7, 31-538 Kraków",
        "latitude" : 50.056862,
        "longitude" : 19.948929,
        "name" : "Lodowisko Cracovii"
      }
    },
    "7f23f420-ecec-44b3-8fe4-c21d1b857b70" : {
      "event" : {
        "dateTime" : {
          "dateTimeEnd" : "2018-01-26 20:00",
          "dateTimeStart" : "2018-01-26 14:00"
        },
        "details" : {
          "city" : "Poznań",
          "eventSize" : "wojewódzki",
          "sportType" : "Biathlon"
        },
        "id" : "7f23f420-ecec-44b3-8fe4-c21d1b857b70",
        "name" : "Wojewódzkie mistrzostwa młodzików w biathlonie"
      },
      "location" : {
        "address" : "Bułgarska 17, 60-320 Poznań",
        "latitude" : 52.397627,
        "longitude" : 16.858115,
        "name" : "INEA Stadion"
      }
    },
    "82211179-9a8a-468e-a7ff-d9d354d23055" : {
      "event" : {
        "dateTime" : {
          "dateTimeEnd" : "2018-01-27 17:00",
          "dateTimeStart" : "2018-01-27 12:00"
        },
        "details" : {
          "city" : "Warszawa",
          "eventSize" : "miejski",
          "sportType" : "Strzelectwo"
        },
        "id" : "82211179-9a8a-468e-a7ff-d9d354d23055",
        "name" : "Mistrzostwa Warszawy w strzelectwie sportowym"
      },
      "location" : {
        "address" : "Kopernika 30 00-336, 00-336 Warszawa",
        "latitude" : 52.237179,
        "longitude" : 21.020636,
        "name" : "Polski Związek Strzelectwa Sportowego"
      }
    },
    "9852ef67-d2b0-46d3-98ef-84b69824b9c4" : {
      "event" : {
        "dateTime" : {
          "dateTimeEnd" : "2018-01-28 12:00",
          "dateTimeStart" : "2018-01-28 06:00"
        },
        "details" : {
          "city" : "Zielona Góra",
          "eventSize" : "miejski",
          "sportType" : "Akrobatyka"
        },
        "id" : "9852ef67-d2b0-46d3-98ef-84b69824b9c4",
        "name" : "XII Turniej w Akrobatyce Sportowej „Winobranie 2016"
      },
      "location" : {
        "address" : "Wrocławska 69, 65-218 Zielona Góra",
        "latitude" : 51.929545,
        "longitude" : 15.530196,
        "name" : "Swiss Krono Arena"
      }
    },
    "9e987d0f-8e95-4af8-a7db-1a2e1594abab" : {
      "event" : {
        "dateTime" : {
          "dateTimeEnd" : "2018-01-30 21:00",
          "dateTimeStart" : "2018-01-30 18:00"
        },
        "details" : {
          "city" : "Białystok",
          "eventSize" : "krajowy",
          "sportType" : "Strzelectwo"
        },
        "id" : "9e987d0f-8e95-4af8-a7db-1a2e1594abab",
        "name" : "Polish Open Kaliber 2018"
      },
      "location" : {
        "address" : "Grunwaldzka 18, 15-893 Białystok",
        "latitude" : 53.129872,
        "longitude" : 23.144821,
        "name" : "Kaliber. Uczniowski Klub Sportowy"
      }
    },
    "a05b9eda-9f58-454e-a9c6-2c0e8d1bdc52" : {
      "event" : {
        "dateTime" : {
          "dateTimeEnd" : "2018-01-26 21:00",
          "dateTimeStart" : "2018-01-26 18:00"
        },
        "details" : {
          "city" : "Warszawa",
          "eventSize" : "międzynarodowy",
          "sportType" : "Piłka nożna"
        },
        "id" : "a05b9eda-9f58-454e-a9c6-2c0e8d1bdc52",
        "name" : "Eliminacje do mistrzostw Świata w piłce nożnej - Polska-Francja"
      },
      "location" : {
        "address" : "aleja Poniatowskiego 1, 03-901 Warszawa",
        "latitude" : 52.239496,
        "longitude" : 21.04579,
        "name" : "PGE Narodowy"
      }
    },
    "acb55aba-77da-42ec-82e4-355d53b04d72" : {
      "event" : {
        "dateTime" : {
          "dateTimeEnd" : "2018-01-05 17:00",
          "dateTimeStart" : "2018-01-05 12:00"
        },
        "details" : {
          "city" : "Gdańsk",
          "eventSize" : "europejski",
          "sportType" : "Siatkówka"
        },
        "id" : "acb55aba-77da-42ec-82e4-355d53b04d72",
        "name" : "Mistrzostwa Europy w siatkówce, faza grupowa - Polska-Finlandia."
      },
      "location" : {
        "address" : "plac Dwóch Miast 1, 80-344 Gdańsk",
        "latitude" : 54.426544,
        "longitude" : 18.580645,
        "name" : "ERGO ARENA"
      }
    },
    "ae9cc660-211b-4cc8-b3d4-e0364ff577ee" : {
      "event" : {
        "dateTime" : {
          "dateTimeEnd" : "2018-01-09 22:00",
          "dateTimeStart" : "2018-01-09 07:00"
        },
        "details" : {
          "city" : "Szczecin",
          "eventSize" : "międzynarodowy",
          "sportType" : "Tenis"
        },
        "id" : "ae9cc660-211b-4cc8-b3d4-e0364ff577ee",
        "name" : "Challenger ATP"
      },
      "location" : {
        "address" : "Litewska 20, 71-344 Szczecin",
        "latitude" : 53.453106,
        "longitude" : 14.505783,
        "name" : "Miejski Stadion Lekkoatletyczny"
      }
    },
    "b542de61-9c17-4969-9358-5f9b0ecb536e" : {
      "event" : {
        "dateTime" : {
          "dateTimeEnd" : "2018-01-27 21:00",
          "dateTimeStart" : "2018-01-27 18:00"
        },
        "details" : {
          "city" : "Wrocław",
          "eventSize" : "międzynarodowy",
          "sportType" : "Piłka nożna"
        },
        "id" : "b542de61-9c17-4969-9358-5f9b0ecb536e",
        "name" : "Eliminacje do mistrzostw Świata w piłce nożnej - Polska-Holandia"
      },
      "location" : {
        "address" : "aleja Śląska 1, 54-118 Wrocław",
        "latitude" : 51.141216,
        "longitude" : 16.943793,
        "name" : "Stadion Wrocław"
      }
    },
    "e6af57a2-aaa0-4be5-a630-a951fd975695" : {
      "event" : {
        "dateTime" : {
          "dateTimeEnd" : "2018-01-30 21:00",
          "dateTimeStart" : "2018-01-30 18:00"
        },
        "details" : {
          "city" : "Gdańsk",
          "eventSize" : "europejski",
          "sportType" : "Piłka nożna"
        },
        "id" : "e6af57a2-aaa0-4be5-a630-a951fd975695",
        "name" : "Mistrzostwa Europy w piłce nożnej - Polska-Dania"
      },
      "location" : {
        "address" : "Pokoleń Lechii Gdańsk 1, 80-560 Gdańsk",
        "latitude" : 54.390079,
        "longitude" : 18.639299,
        "name" : "Stadion Energa Gdańsk"
      }
    },
    "edbb547d-a04a-496e-9d2a-6049894383bf" : {
      "event" : {
        "dateTime" : {
          "dateTimeEnd" : "2018-01-09 20:00",
          "dateTimeStart" : "2018-01-09 16:00"
        },
        "details" : {
          "city" : "Kraków",
          "eventSize" : "międzynarodowy",
          "sportType" : "Hokej"
        },
        "id" : "edbb547d-a04a-496e-9d2a-6049894383bf",
        "name" : "Hokejowa Liga Mistrzów - Cracovia-Brynas"
      },
      "location" : {
        "address" : "Michała Siedleckiego 7, 31-538 Kraków",
        "latitude" : 50.056862,
        "longitude" : 19.948929,
        "name" : "Lodowisko Cracovii"
      }
    },
    "0622a67d-a55f-4e49-b55d-7250091ac518" : {
      "event" : {
        "dateTime" : {
          "dateTimeEnd" : "2018-02-12 20:00",
          "dateTimeStart" : "2018-02-12 18:00"
        },
        "details" : {
          "city" : "Kraków",
          "eventSize" : "międzynarodowy",
          "sportType" : "Hokej"
        },
        "id" : "0622a67d-a55f-4e49-b55d-7250091ac518",
        "name" : "Hokejowa Liga Mistrzów - Maślaki-Brynas"
      },
      "location" : {
        "address" : "Michała Siedleckiego 7, 31-538 Kraków",
        "latitude" : 50.056862,
        "longitude" : 19.948929,
        "name" : "Lodowisko Cracovii"
      }
    },
    "574954c3-c719-4094-91f0-154d5971e989" : {
      "event" : {
        "dateTime" : {
          "dateTimeEnd" : "2018-02-12 17:00",
          "dateTimeStart" : "2018-02-12 13:00"
        },
        "details" : {
          "city" : "Kraków",
          "eventSize" : "międzynarodowy",
          "sportType" : "Hokej"
        },
        "id" : "574954c3-c719-4094-91f0-154d5971e989",
        "name" : "Hokejowa Liga Mistrzów - Zemsta Sithów-Wisła Głęboka"
      },
      "location" : {
        "address" : "Michała Siedleckiego 7, 31-538 Kraków",
        "latitude" : 50.056862,
        "longitude" : 19.948929,
        "name" : "Lodowisko Cracovii"
      }
    },
    "f0d89a4a-1a58-4a88-8768-da94d1bc9de8" : {
      "event" : {
        "dateTime" : {
          "dateTimeEnd" : "2018-02-12 12:00",
          "dateTimeStart" : "2018-02-12 07:00"
        },
        "details" : {
          "city" : "Kraków",
          "eventSize" : "międzynarodowy",
          "sportType" : "Hokej"
        },
        "id" : "f0d89a4a-1a58-4a88-8768-da94d1bc9de8",
        "name" : "Hokejowa Liga Mistrzów - Toruń Pogoń-Wałbrzych Dziurski"
      },
      "location" : {
        "address" : "Michała Siedleckiego 7, 31-538 Kraków",
        "latitude" : 50.056862,
        "longitude" : 19.948929,
        "name" : "Lodowisko Cracovii"
      }
    }
  }
}
